{
    "inputMessageMetadata": {},
    "outputMessageMetadata": {
        "messagePayload": {
            "connectorName": "#_custom_mule_metadata_type_#",
            "typeId": "DocumentType"
        }
    },
    "id": "0150a9fb-cf3a-49c6-991b-656061c51a98",
    "version": "5.2.0.0"
}